6.043338473643442704e-02
4.687936097207138358e-02
2.359476937941569138e-02
4.343404800450452810e-03
3.098479896680805763e-05
4.696224027011046377e-05
2.093119840350592988e-03
2.450512967560536035e-02
3.653965178180901274e-02
1.088798604503106449e-01
7.459625117565754637e-02
3.066221650488304765e-02
1.417612659895040386e-02
3.499529602094614278e-02
1.252968794963795762e-01
3.279240800858814753e-01
3.448184582703349155e-01
1.224816558556768020e-01
2.667548528084747253e-02
2.816388397832847793e-02
2.549034739773853656e-02
5.683394863823801324e-02
1.084286425469024318e-01
1.363466443452636123e-01
6.043338473643442704e-02
