5.455324512345528787e-02
3.629278439724267086e-02
7.747203290975403743e-03
8.068052116718447226e-04
3.258555653926371035e-05
3.454223017489785217e-06
5.368210268304666024e-04
1.440609811492144345e-03
1.232676705615314526e-02
6.878308414925665693e-02
1.037456787175717633e-02
1.008174709994750888e-02
8.500707973707945231e-02
3.831770857072860359e-01
9.213441857595005002e-01
1.359193318463913114e+00
1.160617016890300501e+00
1.271901147101445417e+00
9.611518361887179118e-01
3.961187892061250326e-01
3.340059866580529779e-01
4.410458811364325604e-01
2.915198484089232545e-01
1.337314317112775208e-01
5.455324512345528787e-02
