nan
nan
nan
nan
nan
1.599756975536641182e-21
3.289738244507504399e-20
2.988794440037441886e-20
1.297307884874962816e-20
3.803647134702563189e-21
9.119201511648391355e-20
-2.495114785909516689e-19
1.205910450958256396e-18
-5.178011901352508565e-18
2.188721341190740708e-17
-9.055443171838266494e-17
3.693936889889010520e-16
-1.487817978101630247e-15
5.927520216524696639e-15
-2.339052154922266693e-14
9.152632543533622398e-14
-3.554472920819614847e-13
1.370972168990362614e-12
-5.254733703845321422e-12
2.060494884527737780e-11
6.831580525614071096e-12
2.126011070261066259e-09
1.390898028715355026e-08
1.264962235189306702e-07
1.022966195088765740e-06
5.810349102274453614e-06
1.589995671109253116e-05
2.664085010210594668e-05
3.802620567290353139e-05
5.105863957874720035e-05
6.745955446186320135e-05
8.737190607120816170e-05
1.093232456508070520e-04
1.327810023187619645e-04
1.575320549656340362e-04
1.836148644526044635e-04
2.102872656539921863e-04
2.369590552650485248e-04
2.624279982451883063e-04
2.862781640454720297e-04
3.071015459805358466e-04
3.244923652308072501e-04
3.383016657729893094e-04
3.488858247257437570e-04
3.574921766296267761e-04
3.635096421440956881e-04
3.636766635538795462e-04
3.508363384146055155e-04
3.196380803626750833e-04
2.541949866566877879e-04
1.586312244999182549e-04
7.391579347986228655e-05
2.928104549986660331e-05
1.167195444076029775e-05
3.716448889637617924e-06
1.391749923401913630e-06
5.377955056343938604e-07
1.277665803652819993e-07
2.440162561769192638e-08
4.273429417900325780e-09
4.835528979471375294e-10
4.663708153809056728e-11
8.923225320721167032e-21
-2.287835910574178720e-20
-2.648610202709380049e-21
-4.731926499435640295e-21
-1.038495581672856457e-20
-2.397118818634593225e-20
-1.825422307467003248e-20
3.953761748989452818e-21
2.654954856894500323e-20
1.001994879492791389e-20
2.310154628714799949e-20
3.500290428082876394e-21
-1.062289805435593967e-20
