nan
nan
nan
nan
nan
1.809267761366577590e-02
1.785572983918560369e-02
1.763671354215904860e-02
1.742308200236146118e-02
1.719990416381136922e-02
1.692234508445537508e-02
1.656006153507926654e-02
1.608437101625165982e-02
1.545730777662378090e-02
1.466632574933706898e-02
1.375452861098202910e-02
1.274796158342527894e-02
1.163021681307395937e-02
1.049099575072649955e-02
9.459643958030046137e-03
8.681405796096037727e-03
8.173204175058056478e-03
7.693103596639609860e-03
7.036886997501671549e-03
6.273333612433936758e-03
5.530635770901402501e-03
4.824796121281708754e-03
4.280800133128467855e-03
3.939162122062193211e-03
3.656187696438385672e-03
3.332212418394272981e-03
2.961220330042932305e-03
2.631058979782520662e-03
2.389946364007048459e-03
2.223676594930099927e-03
2.095737974574645671e-03
1.924083407553834691e-03
1.674486325865755373e-03
1.382507914883870101e-03
1.127198813939686963e-03
9.394300733362170863e-04
7.719979742541520319e-04
5.991229911743578681e-04
4.454709580606382581e-04
3.365300564580573370e-04
2.614753775998145341e-04
2.048731839005332039e-04
1.535603690463058170e-04
1.058499498110439387e-04
7.000600392747991679e-05
4.541800436954733110e-05
2.797704870630498040e-05
1.641818838210418440e-05
9.355962824236701354e-06
5.408248909850827249e-06
3.386325571348890955e-06
2.452227621983543035e-06
2.025612120127668676e-06
2.100026053268699359e-06
2.412734435015341329e-06
2.678987988039780628e-06
2.533842344699639119e-06
2.233099442595562569e-06
1.899632650404950413e-06
1.691441650235686190e-06
1.653220720983823998e-06
1.727891597677567402e-06
1.826481160734264758e-06
1.930707674201958160e-06
2.047031601155823799e-06
2.161277723396159149e-06
2.248814298133011230e-06
2.316146584587342963e-06
2.360276922983300234e-06
2.368397297980088583e-06
2.352468280054494767e-06
2.300866190283932040e-06
2.262899310397291704e-06
2.213902147086965665e-06
2.177857819525094277e-06
