nan
nan
nan
nan
nan
1.891962977869466808e-02
1.847970654203846125e-02
1.805410279932664203e-02
1.764144640258764538e-02
1.712203439235635352e-02
1.643168756317677989e-02
1.555934708551239172e-02
1.453486314534188466e-02
1.357429993499505681e-02
1.292403284851577870e-02
1.253035813417931188e-02
1.213286080239134659e-02
1.167683456349240083e-02
1.119300546707624640e-02
1.066036660420540023e-02
1.009471890031187098e-02
9.483412877385823808e-03
8.796524283206099207e-03
7.972709262240916181e-03
7.045701017343059848e-03
6.069007416328341988e-03
5.188989151895074398e-03
4.678418282569860899e-03
4.671117978834184517e-03
4.801130361492110359e-03
4.882719154952463829e-03
4.735594798721631457e-03
4.366049391883260536e-03
3.999815621067432173e-03
3.695882661610824012e-03
3.391260436832071925e-03
3.040593675768979692e-03
2.632528206378562108e-03
2.192372762384682885e-03
1.810563493651427954e-03
1.504568574762598157e-03
1.230276449235627630e-03
9.750470292200041737e-04
7.574883380467269589e-04
5.885571559655773362e-04
4.458301242890148766e-04
3.221403355476447393e-04
2.243490827297355136e-04
1.521948643009011940e-04
9.869235850790741209e-05
6.088449874607945836e-05
3.588267273184269170e-05
2.070995785874013754e-05
1.187403870023262271e-05
6.788040112957640928e-06
3.908028995935736715e-06
2.553611201955616506e-06
2.096496798688436819e-06
2.377291223895515542e-06
2.987468968029366068e-06
3.236049762686134281e-06
4.833775875078320096e-06
4.567813243713230107e-06
2.550083104558298962e-06
1.955747467505074414e-06
1.783913640833234476e-06
1.771048344372069276e-06
1.790226532315364902e-06
1.905364092401954380e-06
2.027721273638787423e-06
2.153654049238582806e-06
2.264976501464902619e-06
2.324581146240341525e-06
2.384185791015973554e-06
2.383005331632402692e-06
2.324615362454068718e-06
2.269116663358511775e-06
2.264976501464969958e-06
2.205371856689135488e-06
2.205371856689603897e-06
