nan
nan
nan
nan
nan
3.029749364736071584e+02
3.030922318092000864e+02
3.032272926531151711e+02
3.033835387734708320e+02
3.035676533794082275e+02
3.038043160042107047e+02
3.041144897629848174e+02
3.045156490447310489e+02
3.050123346046374877e+02
3.056123654691676848e+02
3.063057961198211956e+02
3.070760719284012339e+02
3.079217717203710549e+02
3.088429533653952603e+02
3.098206437733965686e+02
3.107517958831539318e+02
3.115334400280822820e+02
3.122650625298098248e+02
3.130676195484091409e+02
3.140088400737576535e+02
3.150821616716762605e+02
3.163472604569795976e+02
3.178212597596588012e+02
3.193872086078533243e+02
3.210143525331518504e+02
3.227161860357996375e+02
3.245238686201115570e+02
3.263358799931077669e+02
3.280521673309788753e+02
3.297471745453554490e+02
3.314346017416575023e+02
3.331262533606504803e+02
3.348914433559579606e+02
3.367343330498101182e+02
3.385917235052666570e+02
3.402779820099288486e+02
3.418357888571137551e+02
3.433479499945265729e+02
3.448072283326099523e+02
3.461276827335620396e+02
3.473469006999928865e+02
3.485488721992160208e+02
3.496818032725586249e+02
3.507816219492816572e+02
3.517749329941616452e+02
3.527498183388140092e+02
3.539406276720752658e+02
3.554184232456606196e+02
3.573175522898262102e+02
3.602282484418456647e+02
3.647085140085623607e+02
3.711228570491708751e+02
3.800236664073681823e+02
3.927005659823745418e+02
4.097764459704320643e+02
4.308930887863938892e+02
4.533717080879627588e+02
4.766113368920643438e+02
5.000397693345139487e+02
5.247223057282873242e+02
5.521483355124985337e+02
5.832467454083104030e+02
6.152453542601821255e+02
6.490644754046040816e+02
6.842435525882305001e+02
7.209425408207388273e+02
7.597232876395008816e+02
8.005242813902731314e+02
8.451371188176915439e+02
8.952520847918297022e+02
9.552487555594449304e+02
1.023697048861343433e+03
1.105026397067907510e+03
1.196541897881234036e+03
1.300379118107317936e+03
