nan
nan
nan
nan
nan
3.514458222194286746e-02
5.348336212078205060e-02
7.174980754046549059e-02
8.719818768750135785e-02
9.628764386003305087e-02
9.482565656460127668e-02
8.023693804626129411e-02
5.484997675753296165e-02
2.269347414990723413e-02
-1.038676354598226312e-02
-3.037585467514502049e-02
-3.237960647079775323e-02
-2.371509608599586469e-02
-1.774236306420448953e-02
-1.546355964918456026e-02
-1.151851270963745802e-02
1.070474207884890110e-02
4.367212061964029918e-02
7.305203805911096582e-02
1.019597245103122385e-01
1.411284874377304044e-01
1.627586167438561382e-01
1.774604396312934596e-01
1.915430089623189336e-01
2.127159797721337176e-01
2.406820778024962859e-01
2.226020369353490236e-01
2.074194560701785039e-01
2.341718374515668333e-01
2.473158509893783052e-01
2.586758495377186051e-01
3.192247666705791964e-01
3.820082429136488211e-01
4.250623464882846148e-01
4.729794776896246722e-01
5.427097610401518946e-01
6.044001725550370852e-01
6.710288607278214190e-01
7.370754717671547107e-01
8.175747352363602616e-01
9.019129866181566646e-01
9.368310970997847376e-01
9.018909366702753116e-01
8.111751387278500758e-01
7.350773453058464524e-01
6.524785032230501214e-01
4.637689299190171366e-01
2.626497848049725303e-01
8.997324802359756013e-02
-3.133954947744486963e-02
-8.792074771449646942e-02
-5.182979956160189972e-02
-7.116278449512256077e-02
-6.168630631013457405e-02
-5.190178522517870270e-03
6.638756761129777258e-03
-1.678501011430543616e-02
-2.610801796532407140e-02
9.790512663376450472e-03
-2.533129228792829150e-03
-2.147840991031729069e-02
-7.021933730510728465e-03
1.305889742360051738e-02
3.149737687797098118e-02
4.442202673347254993e-02
4.232581796250294015e-02
4.704921009734194109e-02
1.618127422753664127e-02
-1.908453603528618633e-02
-3.800267253025417513e-02
9.026673972918398958e-02
1.787565417296419490e-01
5.099049030114858466e-02
-4.865843566328311581e-02
-3.055120112301739077e-17
