nan
nan
nan
nan
nan
-1.296263060901379494e-01
-2.337415392813573800e-01
-3.625024987924159725e-01
-4.369617113037286282e-01
-4.618090271216667153e-01
-3.776252937601681237e-01
-1.435258352998299014e-01
1.884218108440861572e-01
4.901917140935354578e-01
5.731543066308252277e-01
5.424168531141662086e-01
5.831215216167670023e-01
9.354961105113585029e-01
1.532650991399192586e+00
1.881500792010219136e+00
1.874957279351470163e+00
1.711429968613618957e+00
1.647313801157588742e+00
1.790521990492410342e+00
1.712321036555447984e+00
1.231366421848214321e+00
7.181785782097023230e-01
4.321870009199371698e-01
4.945106196360911643e-01
5.628882965965276153e-01
5.661431030656098873e-01
8.977603183035701706e-01
1.339357220033883467e+00
1.435284705892544199e+00
9.008489732980884401e-01
4.793140684496224324e-01
5.057320814285819477e-01
8.362846244560005748e-02
-6.989122368363396287e-01
-1.050175287355971987e+00
-7.420427657062002025e-01
-4.359224358166777225e-01
-5.408759913249419071e-01
-1.188375229430435498e+00
-1.420554156317354488e+00
-1.144112697816784152e+00
-8.000256387163482419e-01
-1.111490991915640825e+00
-2.837386728684960335e+00
-4.715968502167243059e+00
-5.344264948858746145e+00
-5.186637098384767164e+00
-3.913509917958030826e+00
-2.812819627828378355e+00
-3.120858250466853612e+00
-3.797719954378096396e+00
-3.167165151013648039e+00
-2.341923563681689302e+00
-1.060029082205191431e+00
6.837334168995713446e-01
2.147408278588357755e-01
4.247977883553437639e-01
5.114284529990226202e-01
2.347787678225374264e-01
9.672022929772534916e-02
1.016786036271467852e-01
-1.996528650831338320e-02
-8.188652677403271407e-02
-7.282648105187750076e-02
-2.202700134526468234e-02
2.233066040416397877e-02
6.107582084923936921e-02
8.875012885295714693e-02
1.175478564554647137e-01
1.159391340932511422e-01
1.420197897609939419e-01
1.879073593102680018e-01
2.158964909317198644e-01
1.374514098002565243e-01
nan
