nan
nan
nan
nan
nan
2.913298173988238329e-02
5.165297163336578234e-02
8.184861824875395986e-02
1.181348034399171271e-01
1.579507424592239417e-01
1.985802573873495513e-01
2.369378487559192503e-01
2.700539036576907748e-01
2.972281627852363384e-01
3.200805670596612584e-01
3.415865035881780476e-01
3.653304989125444879e-01
3.942060572043805666e-01
4.301681167528426664e-01
4.759038555468711462e-01
5.323565825011781216e-01
5.980840488683005773e-01
6.693046023835277358e-01
7.414750481463397991e-01
8.153834289200316832e-01
8.891697797698011607e-01
9.612147024961451569e-01
1.037044357781812032e+00
1.114891751084283733e+00
1.190679407680099056e+00
1.259474215499406302e+00
1.320416538404559637e+00
1.390918810097453662e+00
1.461203495564208810e+00
1.549729123133925190e+00
1.650670892430030845e+00
1.763350230768996330e+00
1.871440126117389857e+00
1.977490439849760140e+00
2.085077186703455876e+00
2.209408203342380528e+00
2.350471709136391585e+00
2.529792034694518410e+00
2.719144117279223227e+00
2.885403860054581049e+00
3.021008934629124898e+00
3.128687281934485309e+00
3.213179920267275502e+00
3.273086817145274718e+00
3.281887199366828600e+00
3.193068932859818965e+00
2.966125853805429813e+00
2.597751683423538349e+00
2.150990980762722327e+00
1.660671398609364635e+00
1.161783454816373018e+00
7.231622828848038864e-01
4.414800852404465736e-01
2.421805864797610952e-01
1.565587928943833196e-01
1.269400120468777704e-01
1.364800301060784260e-01
1.490663588157483677e-01
1.696223089036461573e-01
1.754088956333878790e-01
1.819296961722585981e-01
1.986393970255747321e-01
2.190783588584739872e-01
2.392029407826246623e-01
2.606817073152019049e-01
2.782742660304730054e-01
2.828511499383620786e-01
2.641604896413137782e-01
2.224906163529234426e-01
1.777987500585706260e-01
1.393756028754910559e-01
1.222969324767567700e-01
1.095061013820619739e-01
5.303799762897846298e-02
9.299358617005164789e-31
